<?xml version="1.0" encoding="utf-8"?>
<!-- Generator: Adobe Illustrator 21.0.0, SVG Export Plug-In . SVG Version: 6.00 Build 0)  -->
<svg version="1.1" id="Capa_1" xmlns="http://www.w3.org/2000/svg" xmlns:xlink="http://www.w3.org/1999/xlink" x="0px" y="0px"
	 viewBox="0 0 26.2 26.3" style="enable-background:new 0 0 26.2 26.3;" xml:space="preserve">
<style type="text/css">
	.st0{fill:#FFFFFF;}
</style>
<title>Recurso 1</title>
<g id="Capa_2">
	<g id="Layer_1">
		<path class="st0" d="M8.8,14.6L3.4,20L0,16.7v9.6h9.6l-3.4-3.4l5.4-5.4L8.8,14.6z M16.6,0L20,3.4l-5.4,5.4l2.8,2.8l5.4-5.4
			l3.4,3.4V0H16.6z"/>
	</g>
</g>
<g id="Capa_2_1_">
	<g id="Layer_1_1_">
		<path class="st0" d="M11.7,8.8L6.3,3.4L9.6,0H0v9.6l3.4-3.4l5.4,5.4L11.7,8.8z M26.3,16.6L22.8,20l-5.4-5.4l-2.8,2.8l5.4,5.4
			l-3.4,3.4h9.6V16.6z"/>
	</g>
</g>
</svg>
