<svg xmlns="http://www.w3.org/2000/svg" width="1920" height="678" viewBox="0 0 1920 678">
    <defs>
        <linearGradient id="a" x1="7.33%" x2="102%" y1="7.259%" y2="101%">
            <stop offset="0%" stop-color="#3023AE"/>
            <stop offset="63.825%" stop-color="#9152C8"/>
            <stop offset="100%" stop-color="#CD45E4"/>
        </linearGradient>
    </defs>
    <path fill="url(#a)" fill-rule="evenodd" d="M0 677.898V0h1923v425.21z" style="mix-blend-mode:color-burn"/>
</svg>
