<svg xmlns="http://www.w3.org/2000/svg" width="33" height="51" viewBox="0 0 33 51">
    <path fill="#FFF" fill-rule="nonzero" d="M22.547 4.525c-.018.28-.117.514-.3.701l-3.34 3.087a.902.902 0 0 1-.63.252.953.953 0 0 1-.739-.336.975.975 0 0 1-.219-.702.964.964 0 0 1 .3-.673l3.342-3.087a.876.876 0 0 1 .684-.253c.274.02.502.122.684.309.164.206.238.44.218.702zM13.158.09c.274 0 .502.094.685.28.181.206.273.44.273.702v4.63c0 .28-.092.515-.273.702a.918.918 0 0 1-.685.28.976.976 0 0 1-.684-.28.963.963 0 0 1-.274-.702v-4.63c0-.262.09-.496.274-.701.2-.187.429-.281.684-.281zm-5.12 8.474c-.2 0-.41-.093-.628-.28L4.097 5.198a1.041 1.041 0 0 1-.302-.673.925.925 0 0 1 .247-.702c.183-.187.4-.29.657-.309a.832.832 0 0 1 .684.253l3.313 3.087c.2.186.3.41.3.673a.872.872 0 0 1-.245.702.875.875 0 0 1-.713.336zm7.693 1.6c.657.823.987 1.796.987 2.918v6.931c.529-.28 1.076-.42 1.642-.42 1.077 0 1.943.41 2.6 1.234.365.411.63.916.794 1.515a3.389 3.389 0 0 1 1.862-.561c1.058 0 1.925.42 2.6 1.263.639.804.958 1.758.958 2.862a3.239 3.239 0 0 1 1.698-.477c1.022 0 1.87.42 2.546 1.263.674.785 1.022 1.749 1.04 2.89.328 5.425-.056 10.504-1.151 15.237l-.52 1.88c-.09.262-.245.458-.465.59a1.01 1.01 0 0 1-.74.055.938.938 0 0 1-.547-.477.997.997 0 0 1-.082-.757c.127-.393.283-.982.466-1.768 1.059-4.378 1.432-9.26 1.123-14.648v-.056c0-.673-.193-1.235-.576-1.684-.328-.374-.693-.56-1.095-.56-.438 0-.821.196-1.15.588-.328.412-.511.917-.547 1.516v4.91c0 .28-.091.515-.274.702a.918.918 0 0 1-.684.28.978.978 0 0 1-.685-.28.963.963 0 0 1-.273-.702v-8.446c0-.673-.173-1.225-.521-1.656-.31-.374-.684-.56-1.122-.56-.457 0-.84.196-1.15.588-.31.356-.484.824-.52 1.404v5.5c0 .28-.091.514-.274.701a.916.916 0 0 1-.685.28.978.978 0 0 1-.684-.28.967.967 0 0 1-.274-.702v-7.492c0-.673-.181-1.226-.547-1.655a1.388 1.388 0 0 0-1.122-.534c-.439 0-.813.187-1.123.562-.31.374-.483.888-.52 1.543v5.051c0 .28-.092.515-.273.701a.918.918 0 0 1-.685.281.976.976 0 0 1-.684-.28.963.963 0 0 1-.274-.702v-15.63c0-.673-.183-1.226-.547-1.656-.292-.392-.658-.589-1.095-.589-.439 0-.822.197-1.151.59-.329.448-.492 1-.492 1.655v21.944c0 .28-.092.514-.274.701a.978.978 0 0 1-.684.28.916.916 0 0 1-.684-.28.963.963 0 0 1-.274-.701V30.93a8.91 8.91 0 0 0-1.369.87c-1.387 1.066-2.081 2.235-2.081 3.507 0 2.526.912 5.182 2.737 7.97 1.37 2.114 3.085 4.078 5.147 5.892.201.169.32.384.356.646a.962.962 0 0 1-.247.73c-.182.224-.429.336-.74.336-.255 0-.456-.075-.601-.224a30.34 30.34 0 0 1-5.503-6.286c-2.044-3.124-3.066-6.145-3.066-9.064 0-1.945.958-3.648 2.874-5.107a14.385 14.385 0 0 1 2.492-1.43V13.082c0-1.122.31-2.086.93-2.89.712-.88 1.588-1.319 2.629-1.319 1.023 0 1.881.43 2.574 1.29zm9.199 3.9h-4.517a.976.976 0 0 1-.685-.28.963.963 0 0 1-.273-.702c0-.262.09-.495.273-.701.2-.187.429-.281.685-.281h4.517c.273 0 .501.094.684.28.182.207.274.44.274.702 0 .28-.092.515-.274.702a.917.917 0 0 1-.684.28zm2.929 35.329l.027-.112a.933.933 0 0 1 .492-.562c.238-.112.485-.13.74-.056a.923.923 0 0 1 .547.505.917.917 0 0 1 .056.758l-.247.505a.887.887 0 0 1-.821.477.87.87 0 0 1-.493-.168.865.865 0 0 1-.41-.59 1.095 1.095 0 0 1 .109-.757zM1.387 14.065a.976.976 0 0 1-.685-.28.963.963 0 0 1-.273-.702c0-.262.09-.495.273-.701.2-.187.429-.281.685-.281h4.517c.255 0 .483.094.684.28.182.207.274.44.274.702 0 .28-.092.515-.274.702a.978.978 0 0 1-.684.28H1.387z"/>
</svg>
