<svg xmlns="http://www.w3.org/2000/svg" width="53" height="67" viewBox="0 0 53 67">
    <path fill="#FFF" fill-rule="evenodd" d="M.5 0v66.641c36.572-22.214 54.037-33.32 52.394-33.32C51.252 33.32 33.787 22.214.5 0z"/>
</svg>
